2/26/2018
3/7/2018
4/5/2018
4/25/2018
4/27/2018
5/23/2018
6/29/2018
7/2/2018
7/20/2018
8/2/2018
9/21/2018
12/31/2018
1/1/2019
1/2/2019
1/22/2019
1/28/2019
2/27/2019
3/27/2019
4/23/2019
5/6/2019
6/21/2019
6/24/2019
8/15/2019
9/18/2019
11/29/2019